{
  "prepare_queue": {
    "installed": [],
    "uninstalled": []
  },
  "config_munge": {
    "files": {}
  },
  "installed_plugins": {
    "com.ourcodeworld.plugins.Filebrowser": {
      "PACKAGE_NAME": "luke.sync"
    },
    "cordova-plugin-file": {
      "PACKAGE_NAME": "luke.sync"
    },
    "cordova-plugin-ftp": {
      "PACKAGE_NAME": "luke.sync"
    },
    "cordova-plugin-insomnia": {
      "PACKAGE_NAME": "luke.sync"
    },
    "cordova-plugin-local-notification": {
      "ANDROID_SUPPORT_V4_VERSION": "26.+",
      "PACKAGE_NAME": "luke.sync"
    },
    "cordova-plugin-nativestorage": {
      "PACKAGE_NAME": "luke.sync"
    },
    "cordova-plugin-root": {
      "PACKAGE_NAME": "luke.sync"
    },
    "cordova-plugin-whitelist": {
      "PACKAGE_NAME": "luke.sync"
    }
  },
  "dependent_plugins": {
    "cordova-plugin-badge": {
      "PACKAGE_NAME": "luke.sync"
    },
    "cordova-plugin-device": {
      "PACKAGE_NAME": "luke.sync"
    }
  }
}
