{
  "cordova-plugin-whitelist": {
    "source": {
      "type": "registry",
      "id": "cordova-plugin-whitelist@1"
    },
    "is_top_level": true,
    "variables": {}
  },
  "com.ourcodeworld.plugins.Filebrowser": {
    "source": {
      "type": "registry",
      "id": "https://github.com/ourcodeworld/cordova-ourcodeworld-filebrowser.git"
    },
    "is_top_level": true,
    "variables": {}
  },
  "cordova-plugin-file": {
    "source": {
      "type": "registry",
      "id": "cordova-plugin-file@6.0.2"
    },
    "is_top_level": true,
    "variables": {}
  },
  "cordova-plugin-ftp": {
    "source": {
      "type": "registry",
      "id": "cordova-plugin-ftp"
    },
    "is_top_level": true,
    "variables": {}
  },
  "cordova-plugin-root": {
    "source": {
      "type": "registry",
      "id": "cordova-plugin-root"
    },
    "is_top_level": true,
    "variables": {}
  },
  "cordova-plugin-nativestorage": {
    "source": {
      "type": "registry",
      "id": "cordova-plugin-nativestorage"
    },
    "is_top_level": true,
    "variables": {}
  },
  "cordova-plugin-local-notification": {
    "source": {
      "type": "registry",
      "id": "https://github.com/katzer/cordova-plugin-local-notifications.git"
    },
    "is_top_level": true,
    "variables": {}
  },
  "cordova-plugin-device": {
    "source": {
      "type": "registry",
      "id": "cordova-plugin-device"
    },
    "is_top_level": false,
    "variables": {}
  },
  "cordova-plugin-badge": {
    "source": {
      "type": "registry",
      "id": "cordova-plugin-badge@>=0.8.5"
    },
    "is_top_level": false,
    "variables": {}
  },
  "cordova-plugin-insomnia": {
    "source": {
      "type": "registry",
      "id": "https://github.com/EddyVerbruggen/Insomnia-PhoneGap-Plugin.git"
    },
    "is_top_level": true,
    "variables": {}
  }
}